<?xml version="1.0" encoding="UTF-8" standalone="no"?>
<svg
   xmlns:dc="http://purl.org/dc/elements/1.1/"
   xmlns:cc="http://creativecommons.org/ns#"
   xmlns:rdf="http://www.w3.org/1999/02/22-rdf-syntax-ns#"
   xmlns:svg="http://www.w3.org/2000/svg"
   xmlns="http://www.w3.org/2000/svg"
   xmlns:sodipodi="http://sodipodi.sourceforge.net/DTD/sodipodi-0.dtd"
   xmlns:inkscape="http://www.inkscape.org/namespaces/inkscape"
   version="1.1"
   id="svg10"
   xml:space="preserve"
   width="290.62668"
   height="151.17332"
   viewBox="0 0 290.62668 151.17332"
   sodipodi:docname="roche.svg"
   inkscape:version="1.0.2 (e86c8708, 2021-01-15)"><metadata
     id="metadata16"><rdf:RDF><cc:Work
         rdf:about=""><dc:format>image/svg+xml</dc:format><dc:type
           rdf:resource="http://purl.org/dc/dcmitype/StillImage" /><dc:title></dc:title></cc:Work></rdf:RDF></metadata><defs
     id="defs14" /><sodipodi:namedview
     pagecolor="#ffffff"
     bordercolor="#666666"
     borderopacity="1"
     objecttolerance="10"
     gridtolerance="10"
     guidetolerance="10"
     inkscape:pageopacity="0"
     inkscape:pageshadow="2"
     inkscape:window-width="767"
     inkscape:window-height="480"
     id="namedview12"
     showgrid="false"
     inkscape:zoom="2.8834242"
     inkscape:cx="145.31334"
     inkscape:cy="75.586662"
     inkscape:window-x="0"
     inkscape:window-y="23"
     inkscape:window-maximized="0"
     inkscape:current-layer="g18" /><g
     id="g18"
     inkscape:groupmode="layer"
     inkscape:label="ink_ext_XXXXXX"
     transform="matrix(1.3333333,0,0,-1.3333333,0,151.17333)"><g
       id="g20"
       transform="scale(0.1)"><path
         d="m 621.113,710.605 c 0,43.125 -19.004,64.708 -56.992,64.708 h -33.73 v -132.34 h 37.226 c 35.645,0 53.477,22.554 53.496,67.632 z M 899.688,538.637 c 0,16.699 -0.586,38.457 -1.758,65.293 -1.563,34.199 -15.899,51.289 -43.028,51.289 -26.367,0 -40.527,-17.305 -42.461,-51.875 -1.152,-20.996 -1.738,-42.563 -1.738,-64.707 0,-8.949 0.586,-29.551 1.738,-61.797 1.172,-35.371 15.313,-53.047 42.461,-53.047 25.196,0 39.532,17.281 43.028,51.891 1.172,12.816 1.758,33.808 1.758,62.953 z m 821.192,41.968 c 0.31,12.051 -0.47,23.301 -2.34,33.813 -5.08,27.207 -18.99,40.801 -41.88,40.801 -26.41,-0.395 -40.7,-17.485 -43.05,-51.289 l -0.62,-23.325 z M 701.367,371.332 h -69.785 c -0.781,4.258 -1.953,13.785 -3.496,28.555 l -6.973,108.433 c -3.496,50.141 -20.761,75.196 -51.758,75.196 H 530.391 V 371.332 H 460.605 V 834.766 H 568.77 c 81.425,0 122.304,-40.996 122.714,-123.004 0,-48.965 -14.531,-82.192 -43.613,-99.668 25.957,-15.16 40.313,-47.637 43.027,-97.367 1.934,-30.704 4.258,-68.789 6.993,-114.254 0.742,-10.903 1.914,-20.61 3.476,-29.141 z m 268.692,167.305 c 0,-17.895 -0.586,-36.352 -1.758,-55.395 -2.324,-36.91 -13.574,-66.07 -33.731,-87.437 -20.156,-21.387 -46.718,-32.051 -79.668,-32.051 -32.968,0 -59.511,10.664 -79.668,32.051 -20.175,21.367 -31.23,50.527 -33.164,87.437 -1.562,22.168 -2.324,40.625 -2.324,55.395 0.391,25.254 1.152,43.511 2.324,54.785 7.364,80.84 44.961,121.25 112.832,121.266 67.071,0 104.668,-40.426 112.832,-121.266 1.543,-13.598 2.305,-31.875 2.325,-54.785 z m 274.491,44.879 h -69.78 c -0.39,7.777 -0.79,14.55 -1.18,20.414 -0.39,34.199 -14.53,51.289 -42.44,51.289 -25.6,-0.395 -39.96,-17.676 -43.04,-51.875 -1.16,-16.328 -1.74,-37.895 -1.74,-64.707 0,-16.719 0.37,-37.715 1.15,-62.953 3.5,-34.61 18.03,-51.891 43.63,-51.891 25.57,0 39.71,17.676 42.44,53.047 0.39,3.887 0.59,8.34 0.59,13.394 h 70.37 c -6.25,-84.336 -44.2,-126.48 -113.98,-126.48 -32.97,0 -59.53,10.664 -79.67,32.051 -19.79,21.367 -30.84,50.527 -33.17,87.437 -1.56,22.168 -2.12,40.625 -1.73,55.395 0,25.254 0.58,43.511 1.73,54.785 7.37,80.84 44.97,121.25 112.84,121.266 73.26,0 111.25,-43.711 113.98,-131.172 z m 270.39,4.668 V 371.332 H 1444 v 213.941 c 0,24.868 -2.73,41.368 -8.12,49.551 -7.74,12.031 -19.77,17.656 -36.09,16.899 -27.11,-1.172 -40.71,-13.403 -40.71,-36.719 V 371.332 h -70.31 v 466.949 h 70.31 V 695.449 c 15.94,12.817 35.71,19.239 59.38,19.239 22.42,0.371 41.25,-4.864 56.4,-15.743 17.82,-13.218 29.46,-29.55 34.85,-48.965 3.51,-12.437 5.23,-33.046 5.23,-61.796 z m 275.08,-66.461 h -157.58 c 0,-13.223 0.55,-28.184 1.72,-44.883 2.34,-35.371 16.48,-53.047 42.5,-53.047 24.38,0 38.75,17.09 43.05,51.309 0.39,4.253 0.54,8.14 0.54,11.66 h 68.05 c -2.34,-38.481 -13.59,-68.617 -33.75,-90.371 -19.76,-21.758 -45.7,-32.637 -77.89,-32.637 -32.19,0 -58.36,10.664 -78.52,32.051 -19.76,21.754 -30.85,50.894 -33.12,87.437 -1.17,20.59 -1.8,39.043 -1.8,55.395 0,23.711 0.78,41.953 2.35,54.785 7.73,80.84 44.76,121.25 111.09,121.266 33.75,0 60.63,-12.438 80.78,-37.301 17.89,-22.168 27.97,-50.137 30.31,-83.965 1.18,-12.055 1.88,-35.957 2.27,-71.699 z m 314.69,40.234 -439.69,514.743 H 516.426 L 75.6055,563.691 516.426,53.6016 H 1665.02 Z m 75,1.172 L 1692.91,0 H 488.516 L 0,565.449 488.516,1133.83 H 1692.91 l 486.8,-570.701 v 0"
         style="fill:#1878c3;fill-opacity:1;fill-rule:evenodd;stroke:none"
         id="path22" /></g></g></svg>
